<?xml version="1.0" encoding="UTF-8"?>
<svg width="119px" height="60px" viewBox="0 0 119 60" version="1.1" xmlns="http://www.w3.org/2000/svg" xmlns:xlink="http://www.w3.org/1999/xlink">
    <!-- Generator: Sketch 48.2 (47327) - http://www.bohemiancoding.com/sketch -->
    <title>Shape</title>
    <desc>Created with Sketch.</desc>
    <defs></defs>
    <g id="Landing-New" stroke="none" stroke-width="1" fill="none" fill-rule="evenodd" transform="translate(-40.000000, -40.000000)">
        <path d="M158.995885,95.7599594 C159.045682,96.8660049 158.641838,97.9443834 157.878001,98.7450314 C157.114164,99.5456794 156.056686,99.9990458 154.950785,100 C153.133531,100 151.247846,98.1806648 151.247846,95.7599594 C151.1847,94.3333302 151.908962,92.9871643 153.133594,92.2549725 C154.358227,91.5227807 155.885504,91.5227807 157.110136,92.2549725 C158.334769,92.9871643 159.059031,94.3333302 158.995885,95.7599594 Z M88.7540966,98.5232175 L88.7540966,99.3757929 L76.6340046,99.3757929 L76.6340046,98.5232175 C76.6340046,98.5232175 78.2535652,98.2491753 79.8655222,95.4174067 L79.8655222,73.7756914 C78.2535652,70.730779 76.6340046,70.4719614 76.6340046,70.4719614 L76.6340046,69.5965491 C76.6340046,69.5965491 81.6143436,68.835321 84.6481683,65.6838366 L85.522579,65.6838366 L85.522579,95.4174067 C87.0737075,98.2491753 88.7540966,98.5232175 88.7540966,98.5232175 Z M146.738928,98.5232175 L146.738928,99.3757929 L134.481972,99.3757929 L134.481972,98.5232175 C134.481972,98.5232175 136.101533,98.2491753 137.781922,95.4174067 L137.781922,75.0164933 C137.781922,70.8373509 135.021826,69.2844456 131.919569,69.2844456 C125.730262,68.6754631 121.548298,74.1410809 121.213741,75.2144126 L121.213741,95.4174067 C122.901734,98.2491753 124.513691,98.5232175 124.513691,98.5232175 L124.513691,99.3757929 L112.188302,99.3757929 L112.188302,98.5232175 C112.188302,98.5232175 113.876295,98.2491753 115.556684,95.4174067 L115.556684,73.6462827 C113.876295,70.677493 112.188302,70.4034509 112.188302,70.4034509 L112.188302,69.5280386 C114.421496,68.7939178 116.420601,67.4806667 117.982223,65.721898 L118.856634,65.721898 L121.213741,72.1999493 C121.685162,71.3854352 126.870798,65.0520173 134.276676,65.0520173 C139.530743,65.0520173 143.400961,68.3557473 143.400961,75.5036793 L143.400961,95.4174067 C145.050936,98.2491753 146.738928,98.5232175 146.738928,98.5232175 Z M78.4512581,50.8551129 C78.6096697,48.8848072 80.3161679,47.4051649 82.2866702,47.5295669 C84.2571724,47.6539689 85.764492,49.3365064 85.6744217,51.3111267 C85.5843514,53.2857469 83.9301304,54.8237433 81.9565042,54.7678254 C79.9317793,54.6102165 78.3882836,52.8872976 78.4512581,50.8551129 Z M106.58447,98.5232175 L106.58447,99.3757929 L94.3427212,99.3757929 L94.3427212,98.5232175 C94.3427212,98.5232175 95.8634354,98.2491753 97.5818424,95.478305 L97.5818424,48.0918549 C95.8938497,45.1230652 94.3427212,44.8566354 94.3427212,44.8566354 L94.3427212,43.981223 C94.3427212,43.981223 99.307853,43.0449125 102.349281,40.677493 L103.223692,40.677493 L103.223692,95.4174067 C104.919288,98.2491753 106.599678,98.5232175 106.599678,98.5232175 L106.58447,98.5232175 Z M73.9271334,98.5232175 L73.9271334,99.3757929 L64.3770483,99.3757929 L48.8885744,82.7429586 L48.8885744,95.4174067 C50.4092886,98.1197666 52.120092,98.4623192 52.120092,98.5232175 L52.120092,99.3757929 L40,99.3757929 L40,98.5232175 C40,98.4547069 41.6803892,98.1197666 43.2315176,95.4174067 L43.2315176,48.2897742 C41.9541177,45.8690688 40.3345571,45.3971073 40,45.3285968 L40,44.3161634 C40,44.3161634 45.0487711,43.0449125 47.5427423,40 L48.8885744,40 L48.8885744,78.5638163 L59.7692843,68.6526262 C59.3212311,67.6492719 58.4618261,66.8887986 57.4121774,66.5668612 L57.4121774,65.6838366 L69.1977123,65.6838366 L69.1977123,66.5668612 C67.4909891,66.7945513 65.8411037,67.3365401 64.3314269,68.1654402 L53.0629348,79.1727988 L69.2281266,96.6810454 C70.6598691,97.6061065 72.2632245,98.2326492 73.9423405,98.5232175 L73.9271334,98.5232175 Z" id="Shape" fill="#2A3845" fill-rule="nonzero"></path>
    </g>
</svg>